articlesum4
…
# keep the first three rows within each group
flights %>% group_by(month, day) %>% slice(1:3)

## Source: local data frame [1,095 x 19]
## Groups: month, day [365]
## 
##     year month   day dep_time sched_dep_time dep_delay arr_time
##    <int> <int> <int>    <int>          <int>     <dbl>    <int>
## 1   2013     1     1      517            515         2      830
## 2   2013     1     1      533            529         4      850
## 3   2013     1     1      542            540         2      923
## 4   2013     1     2       42           2359        43      518
## 5   2013     1     2      126           2250       156      233
## 6   2013     1     2      458            500        -2      703
## 7   2013     1     3       32           2359        33      504
## 8   2013     1     3       50           2145       185      203
## 9   2013     1     3      235           2359       156      700
## 10  2013     1     4       25           2359        26      505
## # ... with 1,085 more rows, and 12 more variables: sched_arr_time <int>,
## #   arr_delay <dbl>, carrier <chr>, flight <int>, tailnum <chr>,
## #   origin <chr>, dest <chr>, air_time <dbl>, distance <dbl>, hour <dbl>,
## #   minute <dbl>, time_hour <dttm>

# sample three rows from each group
flights %>% group_by(month, day) %>% sample_n(3)

## Source: local data frame [1,095 x 19]
## Groups: month, day [365]
## 
##     year month   day dep_time sched_dep_time dep_delay arr_time
##    <int> <int> <int>    <int>          <int>     <dbl>    <int>
## 1   2013     1     1     1626           1630        -4     1855
## 2   2013     1     1     1231           1238        -7     1449
## 3   2013     1     1     1539           1537         2     1854
## 4   2013     1     2     1431           1430         1     1745
## 5   2013     1     2      654            651         3     1003
## 6   2013     1     2     1732           1734        -2     1850
## 7   2013     1     3      806            810        -4      907
## 8   2013     1     3      700            700         0      851
## 9   2013     1     3     2051           2055        -4     2249
## 10  2013     1     4     1733           1710        23     1835
## # ... with 1,085 more rows, and 12 more variables: sched_arr_time <int>,
## #   arr_delay <dbl>, carrier <chr>, flight <int>, tailnum <chr>,
## #   origin <chr>, dest <chr>, air_time <dbl>, distance <dbl>, hour <dbl>,
## #   minute <dbl>, time_hour <dttm>

# keep three rows from each group with the top dep_delay
flights %>% group_by(month, day) %>% top_n(3, dep_delay)

## Source: local data frame [1,108 x 19]
## Groups: month, day [365]
## 
##     year month   day dep_time sched_dep_time dep_delay arr_time
##    <int> <int> <int>    <int>          <int>     <dbl>    <int>
## 1   2013     1     1      848           1835       853     1001
## 2   2013     1     1     1815           1325       290     2120
## 3   2013     1     1     2343           1724       379      314
## 4   2013     1     2     1412            838       334     1710
## 5   2013     1     2     1607           1030       337     2003
## 6   2013     1     2     2131           1512       379     2340
## 7   2013     1     3     2008           1540       268     2339
## 8   2013     1     3     2012           1600       252     2314
## 9   2013     1     3     2056           1605       291     2239
## 10  2013     1     4     2058           1730       208        2
## # ... with 1,098 more rows, and 12 more variables: sched_arr_time <int>,
## #   arr_delay <dbl>, carrier <chr>, flight <int>, tailnum <chr>,
## #   origin <chr>, dest <chr>, air_time <dbl>, distance <dbl>, hour <dbl>,
## #   minute <dbl>, time_hour <dttm>

# also sort by dep_delay within each group
flights %>% group_by(month, day) %>% top_n(3, dep_delay) %>% arrange(desc(dep_delay))

## Source: local data frame [1,108 x 19]
## Groups: month, day [365]
## 
##     year month   day dep_time sched_dep_time dep_delay arr_time
##    <int> <int> <int>    <int>          <int>     <dbl>    <int>
## 1   2013     1     9      641            900      1301     1242
## 2   2013     6    15     1432           1935      1137     1607
## 3   2013     1    10     1121           1635      1126     1239
## 4   2013     9    20     1139           1845      1014     1457
## 5   2013     7    22      845           1600      1005     1044
## 6   2013     4    10     1100           1900       960     1342
## 7   2013     3    17     2321            810       911      135
## 8   2013     6    27      959           1900       899     1236
## 9   2013     7    22     2257            759       898      121
## 10  2013    12     5      756           1700       896     1058
## # ... with 1,098 more rows, and 12 more variables: sched_arr_time <int>,
## #   arr_delay <dbl>, carrier <chr>, flight <int>, tailnum <chr>,
## #   origin <chr>, dest <chr>, air_time <dbl>, distance <dbl>, hour <dbl>,
## #   minute <dbl>, time_hour <dttm>
…
# group by two variables, summarise, arrange (output is possibly confusing)
flights %>% group_by(month, day) %>% summarise(cnt = n()) %>% arrange(desc(cnt)) %>% print(n = 40)

## Source: local data frame [365 x 3]
## Groups: month [12]
## 
##    month   day   cnt
##    <int> <int> <int>
## 1     11    27  1014
## 2      7    11  1006
## 3      7     8  1004
## 4      7    10  1004
## 5     12     2  1004
## 6      7    18  1003
## 7      7    25  1003
## 8      7    12  1002
## 9      7     9  1001
## 10     7    17  1001
## 11     7    31  1001
## 12     8     7  1001
## 13     8     8  1001
## 14     8    12  1001
## 15     7    22  1000
## 16     7    24  1000
## 17     8     1  1000
## 18     8     5  1000
## 19     8    15  1000
## 20    11    21  1000
## 21     7    15   999
## 22     7    19   999
## 23     7    26   999
## 24     7    29   999
## 25     8     2   999
## 26     8     9   999
## 27    11    22   999
## 28     8    16   998
## 29     7    23   997
## 30     7    30   997
## 31     8    14   997
## 32     7    16   996
## 33     8     6   996
## 34     8    19   996
## 35     9    13   996
## 36     9    26   996
## 37     9    27   996
## 38     4    15   995
## 39     6    20   995
## 40     6    26   995
## # ... with 325 more rows
…
tblflights %>%
  group_by(month,day) %>%
  tally(sort = TRUE)

## Source: local data frame [365 x 3]
## Groups: month [12]
## 
##    month   day     n
##    <int> <int> <int>
## 1     11    27  1014
## 2      7    11  1006
## 3      7     8  1004
## 4      7    10  1004
## 5     12     2  1004
## 6      7    18  1003
## 7      7    25  1003
## 8      7    12  1002
## 9      7     9  1001
## 10     7    17  1001
## # ... with 355 more rows
…
